{
  "version": {
    "major": 4,
    "minor": 2
  },
  "checkouts": [
    {
      "id": "redhat:1163293372",
      "origin": "redhat",
      "valid": true,
      "tree_name": "rawhide-ark",
      "misc": {
        "provenance": [
          {
            "function": "coordinator",
            "url": "https://gitlab.com/redhat/red-hat-ci-tools/kernel/cki-internal-pipelines/cki-trusted-contributors/-/pipelines/1163293372",
            "service_name": "gitlab"
          }
        ],
        "retrigger": false,
        "scratch": false,
        "public": true,
        "is_public": true,
        "source_package_name": "kernel",
        "report_rules": "[\n  {\"when\": \"failed_tests\", \"send_to\": \"failed_tests_maintainers\"},\n  {\"when\": \"always\", \"send_to\": [\"tstellar@redhat.com\", \"tbaeder@redhat.com\"]}\n]\n",
        "kernel_version": "6.8.0-0.rc2.56897d51886f.24.test.fc40"
      },
      "start_time": "2024-02-03T11:33:29.639613+00:00",
      "contacts": [],
      "git_repository_url": "https://gitlab.com/cki-project/kernel-ark.git",
      "git_repository_branch": "ark-latest",
      "patchset_hash": "",
      "git_commit_name": "kernel-6.8.0-0.rc2.56897d51886f.24",
      "comment": "[redhat] kernel-6.8.0-0.rc2.56897d51886f.24",
      "git_commit_hash": "b144ed201944a4da5833a78cfb62ecc99f7663b8"
    }
  ],
  "builds": [
    {
      "id": "redhat:1163293372-x86_64-kernel",
      "origin": "redhat",
      "checkout_id": "redhat:1163293372",
      "architecture": "x86_64",
      "misc": {
        "debug": false
      },
      "duration": 559
    },
    {
      "id": "redhat:1163293372-aarch64-kernel",
      "origin": "redhat",
      "checkout_id": "redhat:1163293372",
      "architecture": "aarch64",
      "misc": {
        "debug": false,
        "provenance": [
          {
            "function": "executor",
            "url": "https://gitlab.com/redhat/red-hat-ci-tools/kernel/cki-internal-pipelines/cki-trusted-contributors/-/jobs/6089154599",
            "service_name": "gitlab"
          }
        ],
        "package_name": "kernel",
        "test_plan_missing": false,
        "kpet_tree_name": "rawhide"
      },
      "duration": 4237,
      "start_time": "2024-02-03T11:48:19.895061+00:00",
      "comment": "CKI build of rawhide-ark",
      "compiler": "clang version 17.0.6 (Fedora 17.0.6-1.fc40)",
      "log_url": "https://s3.amazonaws.com/arr-cki-prod-trusted-artifacts/trusted-artifacts/1163293372/build_aarch64/6089154599/artifacts/build.log",
      "config_url": "https://s3.amazonaws.com/arr-cki-prod-trusted-artifacts/trusted-artifacts/1163293372/build_aarch64/6089154599/artifacts/kernel-aarch64.config",
      "config_name": "srpm: kernel-aarch64.config",
      "command": "rpmbuild --target aarch64 --with up --with base --with toolchain_clang --without trace --without arm64_16k --without arm64_64k --without debug --without realtime --without zfcpdump",
      "output_files": [
        {
          "name": "beaker_kernel_package_url",
          "url": "https://s3.upshift.redhat.com/DH-PROD-CKI/internal/1163293372/aarch64/6.8.0-0.rc2.56897d51886f.24.test.fc40.aarch64"
        },
        {
          "name": "kernel_package_url",
          "url": "https://s3.amazonaws.com/arr-cki-prod-trusted-artifacts/trusted-artifacts/1163293372/publish_aarch64/6089154626/artifacts/repo/6.8.0-0.rc2.56897d51886f.24.test.fc40.aarch64/"
        },
        {
          "name": "kernel_repofile_url",
          "url": "https://s3.amazonaws.com/arr-cki-prod-trusted-artifacts/trusted-artifacts/1163293372/publish_aarch64/6089154626/artifacts/cki-kernel.repo"
        },
        {
          "name": "kernel_browse_url",
          "url": "https://s3.amazonaws.com/arr-cki-prod-trusted-artifacts/index.html?prefix=trusted-artifacts/1163293372/publish_aarch64/6089154626/artifacts/repo/6.8.0-0.rc2.56897d51886f.24.test.fc40.aarch64/"
        },
        {
          "name": "beaker_xml",
          "url": "https://s3.amazonaws.com/arr-cki-prod-trusted-artifacts/trusted-artifacts/1163293372/setup_aarch64/6089154643/artifacts/beaker.xml"
        }
      ],
      "valid": true
    },
    {
      "id": "redhat:1163293372-s390x-kernel",
      "origin": "redhat",
      "checkout_id": "redhat:1163293372",
      "architecture": "s390x",
      "misc": {
        "debug": false,
        "provenance": [
          {
            "function": "executor",
            "url": "https://gitlab.com/redhat/red-hat-ci-tools/kernel/cki-internal-pipelines/cki-trusted-contributors/-/jobs/6089154599",
            "service_name": "gitlab"
          }
        ],
        "package_name": "kernel",
        "test_plan_missing": false,
        "kpet_tree_name": "rawhide"
      },
      "duration": 4237,
      "start_time": "2024-02-03T11:48:19.895061+00:00",
      "comment": "CKI build of rawhide-ark",
      "compiler": "clang version 17.0.6 (Fedora 17.0.6-1.fc40)",
      "log_url": "https://s3.amazonaws.com/arr-cki-prod-trusted-artifacts/trusted-artifacts/1163293372/build_aarch64/6089154599/artifacts/build.log",
      "config_url": "https://s3.amazonaws.com/arr-cki-prod-trusted-artifacts/trusted-artifacts/1163293372/build_aarch64/6089154599/artifacts/kernel-s390x.config",
      "config_name": "srpm: kernel-s390x.config",
      "command": "rpmbuild --target s390x --with up --with base --with toolchain_clang --without trace --without arm64_16k --without arm64_64k --without debug --without realtime --without zfcpdump",
      "output_files": [
        {
          "name": "beaker_kernel_package_url",
          "url": "https://s3.upshift.redhat.com/DH-PROD-CKI/internal/1163293372/s390x/6.8.0-0.rc2.56897d51886f.24.test.fc40.s390x"
        },
        {
          "name": "kernel_package_url",
          "url": "https://s3.amazonaws.com/arr-cki-prod-trusted-artifacts/trusted-artifacts/1163293372/publish_aarch64/6089154626/artifacts/repo/6.8.0-0.rc2.56897d51886f.24.test.fc40.aarch64/"
        },
        {
          "name": "kernel_repofile_url",
          "url": "https://s3.amazonaws.com/arr-cki-prod-trusted-artifacts/trusted-artifacts/1163293372/publish_aarch64/6089154626/artifacts/cki-kernel.repo"
        },
        {
          "name": "kernel_browse_url",
          "url": "https://s3.amazonaws.com/arr-cki-prod-trusted-artifacts/index.html?prefix=trusted-artifacts/1163293372/publish_aarch64/6089154626/artifacts/repo/6.8.0-0.rc2.56897d51886f.24.test.fc40.aarch64/"
        },
        {
          "name": "beaker_xml",
          "url": "https://s3.amazonaws.com/arr-cki-prod-trusted-artifacts/trusted-artifacts/1163293372/setup_aarch64/6089154643/artifacts/beaker.xml"
        }
      ],
      "valid": true
    }
  ],
  "tests": [
    {
      "id": "redhat:1163293372-aarch64-kernel_upt_7",
      "origin": "redhat",
      "build_id": "redhat:1163293372-aarch64-kernel",
      "comment": "Storage - swraid scsi_raid",
      "path": "redhat_swraid_scsi_raid",
      "waived": false,
      "misc": {
        "targeted": false,
        "debug": false,
        "fetch_url": "https://gitlab.com/redhat/centos-stream/tests/kernel/kernel-tests/-/archive/production/kernel-tests-production.zip#storage/swraid/scsi_raid",
        "beaker": {
          "task_id": 8,
          "recipe_id": 15504811,
          "finish_time": "2024-02-04T00:04:13+00:00"
        },
        "maintainers": [
          {
            "name": "Changhui Zhong",
            "email": "czhong@redhat.com",
            "gitlab": "czhong2"
          }
        ],
        "rerun_index": 1,
        "results": [
          {
            "id": "redhat:1163293372-aarch64-kernel_upt_7.1707002219",
            "name": "/10_localwatchdog",
            "comment": "/10_localwatchdog",
            "status": "ERROR",
            "output_files": [
              {
                "name": "test_timeout.log",
                "url": "https://s3.amazonaws.com/arr-cki-prod-trusted-artifacts/trusted-artifacts/1163293372/test_aarch64/6090070673/artifacts/run.done.01/job.01/recipes/15504811/tasks/8/results/1707002219/logs/test_timeout.log"
              },
              {
                "name": "resultoutputfile.log",
                "url": "https://s3.amazonaws.com/arr-cki-prod-trusted-artifacts/trusted-artifacts/1163293372/test_aarch64/6090070673/artifacts/run.done.01/job.01/recipes/15504811/tasks/8/results/1707002219/logs/resultoutputfile.log"
              }
            ]
          }
        ],
        "provenance": [
          {
            "function": "coordinator",
            "url": "https://gitlab.com/redhat/red-hat-ci-tools/kernel/cki-internal-pipelines/cki-trusted-contributors/-/jobs/6090070673",
            "service_name": "gitlab"
          },
          {
            "function": "provisioner",
            "url": "https://beaker.engineering.redhat.com/recipes/15504811",
            "service_name": "beaker"
          }
        ]
      },
      "start_time": "2024-02-03T23:31:49+00:00",
      "output_files": [
        {
          "name": "harness.log",
          "url": "https://s3.amazonaws.com/arr-cki-prod-trusted-artifacts/trusted-artifacts/1163293372/test_aarch64/6090070673/artifacts/run.done.01/job.01/recipes/15504811/tasks/8/logs/harness.log"
        },
        {
          "name": "test_console.log",
          "url": "https://s3.amazonaws.com/arr-cki-prod-trusted-artifacts/trusted-artifacts/1163293372/test_aarch64/6090070673/artifacts/run.done.01/job.01/recipes/15504811/tasks/8/logs/test_console.log"
        },
        {
          "name": "taskout.log",
          "url": "https://s3.amazonaws.com/arr-cki-prod-trusted-artifacts/trusted-artifacts/1163293372/test_aarch64/6090070673/artifacts/run.done.01/job.01/recipes/15504811/tasks/8/logs/taskout.log"
        },
        {
          "name": "ps-lwd.log",
          "url": "https://s3.amazonaws.com/arr-cki-prod-trusted-artifacts/trusted-artifacts/1163293372/test_aarch64/6090070673/artifacts/run.done.01/job.01/recipes/15504811/tasks/8/logs/ps-lwd.log"
        },
        {
          "name": "journalctl",
          "url": "https://s3.amazonaws.com/arr-cki-prod-trusted-artifacts/trusted-artifacts/1163293372/test_aarch64/6090070673/artifacts/run.done.01/job.01/recipes/15504811/tasks/8/logs/journalctl"
        },
        {
          "name": "console.log",
          "url": "https://s3.amazonaws.com/arr-cki-prod-trusted-artifacts/trusted-artifacts/1163293372/test_aarch64/6090070673/artifacts/run.done.01/results_0001/console.log"
        },
        {
          "name": "beaker_xml",
          "url": "https://s3.amazonaws.com/arr-cki-prod-trusted-artifacts/trusted-artifacts/1163293372/test_aarch64/6090070673/artifacts/testid7/beaker.xml"
        }
      ],
      "environment": {
        "comment": "ampere-mtsnow-altramax-37.khw.eng.rdu2.dc.redhat.com"
      },
      "duration": 1944,
      "status": "ERROR"
    },
    {
      "id": "redhat:1163293372-aarch64-kernel_upt_19",
      "origin": "redhat",
      "build_id": "redhat:1163293372-aarch64-kernel",
      "comment": "Memory function: memfd_create",
      "path": "redhat_memfd_create",
      "waived": false,
      "misc": {
        "targeted": false,
        "debug": false,
        "forced_skip_status": true
      },
      "status": "MISS",
      "output_files": [
        {
          "name": "beaker_xml",
          "url": "https://s3.amazonaws.com/arr-cki-prod-trusted-artifacts/trusted-artifacts/1163293372/test_aarch64/6090070673/artifacts/testid19/beaker.xml"
        }
      ]
    },
    {
      "id": "redhat:1163293372-aarch64-kernel_upt_39",
      "origin": "redhat",
      "build_id": "redhat:1163293372-aarch64-kernel",
      "comment": "selinux-policy: serge-testsuite",
      "path": "selinux",
      "waived": false,
      "misc": {
        "targeted": false,
        "debug": false,
        "fetch_url": "https://gitlab.com/redhat/centos-stream/tests/kernel/kernel-tests/-/archive/production/kernel-tests-production.zip#packages/selinux-policy/serge-testsuite",
        "beaker": {
          "task_id": 6,
          "recipe_id": 15504814,
          "finish_time": "2024-02-03T23:53:21+00:00"
        },
        "maintainers": [
          {
            "name": "Milos Malik",
            "email": "mmalik@redhat.com",
            "gitlab": "milosmalik"
          },
          {
            "name": "Ondrej Mosnacek",
            "email": "omosnace@redhat.com",
            "gitlab": "omos"
          }
        ],
        "rerun_index": 1,
        "results": [
          {
            "id": "redhat:1163293372-aarch64-kernel_upt_39.1707003703",
            "name": "Install",
            "comment": "Install",
            "status": "PASS",
            "output_files": [
              {
                "name": "dmesg.log",
                "url": "https://s3.amazonaws.com/arr-cki-prod-trusted-artifacts/trusted-artifacts/1163293372/test_aarch64/6090070673/artifacts/run.done.04/job.01/recipes/15504814/tasks/6/results/1707003703/logs/dmesg.log"
              },
              {
                "name": "resultoutputfile.log",
                "url": "https://s3.amazonaws.com/arr-cki-prod-trusted-artifacts/trusted-artifacts/1163293372/test_aarch64/6090070673/artifacts/run.done.04/job.01/recipes/15504814/tasks/6/results/1707003703/logs/resultoutputfile.log"
              }
            ]
          }
        ],
        "provenance": [
          {
            "function": "coordinator",
            "url": "https://gitlab.com/redhat/red-hat-ci-tools/kernel/cki-internal-pipelines/cki-trusted-contributors/-/jobs/6090070673",
            "service_name": "gitlab"
          },
          {
            "function": "provisioner",
            "url": "https://beaker.engineering.redhat.com/recipes/15504814",
            "service_name": "beaker"
          }
        ]
      },
      "start_time": "2024-02-03T23:45:45+00:00",
      "output_files": [
        {
          "name": "harness.log",
          "url": "https://s3.amazonaws.com/arr-cki-prod-trusted-artifacts/trusted-artifacts/1163293372/test_aarch64/6090070673/artifacts/run.done.04/job.01/recipes/15504814/tasks/6/logs/harness.log"
        },
        {
          "name": "test_console.log",
          "url": "https://s3.amazonaws.com/arr-cki-prod-trusted-artifacts/trusted-artifacts/1163293372/test_aarch64/6090070673/artifacts/run.done.04/job.01/recipes/15504814/tasks/6/logs/test_console.log"
        },
        {
          "name": "taskout.log",
          "url": "https://s3.amazonaws.com/arr-cki-prod-trusted-artifacts/trusted-artifacts/1163293372/test_aarch64/6090070673/artifacts/run.done.04/job.01/recipes/15504814/tasks/6/logs/taskout.log"
        },
        {
          "name": "journal.xml",
          "url": "https://s3.amazonaws.com/arr-cki-prod-trusted-artifacts/trusted-artifacts/1163293372/test_aarch64/6090070673/artifacts/run.done.04/job.01/recipes/15504814/tasks/6/logs/journal.xml"
        },
        {
          "name": "selinux-testsuite.results.6.8.0-0.rc2.56897d51886f.24.test.fc40.aarch64.txt",
          "url": "https://s3.amazonaws.com/arr-cki-prod-trusted-artifacts/trusted-artifacts/1163293372/test_aarch64/6090070673/artifacts/run.done.04/job.01/recipes/15504814/tasks/6/logs/selinux-testsuite.results.6.8.0-0.rc2.56897d51886f.24.test.fc40.aarch64.txt"
        },
        {
          "name": "console.log",
          "url": "https://s3.amazonaws.com/arr-cki-prod-trusted-artifacts/trusted-artifacts/1163293372/test_aarch64/6090070673/artifacts/run.done.04/results_0001/console.log"
        },
        {
          "name": "beaker_xml",
          "url": "https://s3.amazonaws.com/arr-cki-prod-trusted-artifacts/trusted-artifacts/1163293372/test_aarch64/6090070673/artifacts/testid39/beaker.xml"
        }
      ],
      "environment": {
        "comment": "hpe-apollo-cn99xx-15-vm-04.khw.eng.rdu2.dc.redhat.com"
      },
      "duration": 456,
      "status": "PASS"
    },
    {
      "id": "redhat:1163293372-x86_64-kernel_upt_40",
      "origin": "redhat",
      "build_id": "redhat:1163293372-x86_64-kernel",
      "comment": "Hardware - Firmware test suite",
      "path": "fwts",
      "waived": true,
      "misc": {
        "targeted": false,
        "debug": false,
        "fetch_url": "https://gitlab.com/redhat/centos-stream/tests/kernel/kernel-tests/-/archive/production/kernel-tests-production.zip#firmware/user-specified",
        "beaker": {
          "task_id": 7,
          "recipe_id": 15504814,
          "finish_time": "2024-02-04T00:06:33+00:00"
        },
        "maintainers": [
          {
            "name": "Jiri Dluhos",
            "email": "jdluhos@redhat.com",
            "gitlab": "JiriDluhosRH"
          }
        ],
        "rerun_index": 1,
        "results": [
          {
            "id": "redhat:1163293372-x86_64-kernel_upt_40.1707003710",
            "name": "Setup",
            "comment": "Setup",
            "status": "ERROR",
            "output_files": [
              {
                "name": "dmesg.log",
                "url": "https://s3.amazonaws.com/arr-cki-prod-trusted-artifacts/trusted-artifacts/1163293372/test_aarch64/6090070673/artifacts/run.done.04/job.01/recipes/15504814/tasks/7/results/1707003710/logs/dmesg.log"
              },
              {
                "name": "avc.log",
                "url": "https://s3.amazonaws.com/arr-cki-prod-trusted-artifacts/trusted-artifacts/1163293372/test_aarch64/6090070673/artifacts/run.done.04/job.01/recipes/15504814/tasks/7/results/1707003710/logs/avc.log"
              },
              {
                "name": "resultoutputfile.log",
                "url": "https://s3.amazonaws.com/arr-cki-prod-trusted-artifacts/trusted-artifacts/1163293372/test_aarch64/6090070673/artifacts/run.done.04/job.01/recipes/15504814/tasks/7/results/1707003710/logs/resultoutputfile.log"
              }
            ]
          },
          {
            "id": "redhat:1163293372-x86_64-kernel_upt_40.1707003722",
            "name": "acpidump",
            "comment": "acpidump",
            "status": "PASS",
            "output_files": [
              {
                "name": "avc.log",
                "url": "https://s3.amazonaws.com/arr-cki-prod-trusted-artifacts/trusted-artifacts/1163293372/test_aarch64/6090070673/artifacts/run.done.04/job.01/recipes/15504814/tasks/7/results/1707003722/logs/avc.log"
              },
              {
                "name": "resultoutputfile.log",
                "url": "https://s3.amazonaws.com/arr-cki-prod-trusted-artifacts/trusted-artifacts/1163293372/test_aarch64/6090070673/artifacts/run.done.04/job.01/recipes/15504814/tasks/7/results/1707003722/logs/resultoutputfile.log"
              }
            ]
          },
          {
            "id": "redhat:1163293372-x86_64-kernel_upt_40.1707003743",
            "name": "facs",
            "comment": "facs",
            "status": "PASS",
            "output_files": [
              {
                "name": "avc.log",
                "url": "https://s3.amazonaws.com/arr-cki-prod-trusted-artifacts/trusted-artifacts/1163293372/test_aarch64/6090070673/artifacts/run.done.04/job.01/recipes/15504814/tasks/7/results/1707003743/logs/avc.log"
              },
              {
                "name": "resultoutputfile.log",
                "url": "https://s3.amazonaws.com/arr-cki-prod-trusted-artifacts/trusted-artifacts/1163293372/test_aarch64/6090070673/artifacts/run.done.04/job.01/recipes/15504814/tasks/7/results/1707003743/logs/resultoutputfile.log"
              }
            ]
          }
        ],
        "provenance": [
          {
            "function": "coordinator",
            "url": "https://gitlab.com/redhat/red-hat-ci-tools/kernel/cki-internal-pipelines/cki-trusted-contributors/-/jobs/6090070673",
            "service_name": "gitlab"
          },
          {
            "function": "provisioner",
            "url": "https://beaker.engineering.redhat.com/recipes/15504814",
            "service_name": "beaker"
          }
        ]
      },
      "start_time": "2024-02-03T23:54:27+00:00",
      "output_files": [
        {
          "name": "harness.log",
          "url": "https://s3.amazonaws.com/arr-cki-prod-trusted-artifacts/trusted-artifacts/1163293372/test_aarch64/6090070673/artifacts/run.done.04/job.01/recipes/15504814/tasks/7/logs/harness.log"
        },
        {
          "name": "test_console.log",
          "url": "https://s3.amazonaws.com/arr-cki-prod-trusted-artifacts/trusted-artifacts/1163293372/test_aarch64/6090070673/artifacts/run.done.04/job.01/recipes/15504814/tasks/7/logs/test_console.log"
        },
        {
          "name": "taskout.log",
          "url": "https://s3.amazonaws.com/arr-cki-prod-trusted-artifacts/trusted-artifacts/1163293372/test_aarch64/6090070673/artifacts/run.done.04/job.01/recipes/15504814/tasks/7/logs/taskout.log"
        },
        {
          "name": "journal.xml",
          "url": "https://s3.amazonaws.com/arr-cki-prod-trusted-artifacts/trusted-artifacts/1163293372/test_aarch64/6090070673/artifacts/run.done.04/job.01/recipes/15504814/tasks/7/logs/journal.xml"
        },
        {
          "name": "results.log",
          "url": "https://s3.amazonaws.com/arr-cki-prod-trusted-artifacts/trusted-artifacts/1163293372/test_aarch64/6090070673/artifacts/run.done.04/job.01/recipes/15504814/tasks/7/logs/results.log"
        },
        {
          "name": "console.log",
          "url": "https://s3.amazonaws.com/arr-cki-prod-trusted-artifacts/trusted-artifacts/1163293372/test_aarch64/6090070673/artifacts/run.done.04/results_0001/console.log"
        },
        {
          "name": "beaker_xml",
          "url": "https://s3.amazonaws.com/arr-cki-prod-trusted-artifacts/trusted-artifacts/1163293372/test_aarch64/6090070673/artifacts/testid40/beaker.xml"
        }
      ],
      "environment": {
        "comment": "hpe-apollo-cn99xx-15-vm-04.khw.eng.rdu2.dc.redhat.com"
      },
      "duration": 726,
      "status": "ERROR"
    },
    {
      "id": "redhat:1163293372-x86_64-kernel_upt_41",
      "origin": "redhat",
      "build_id": "redhat:1163293372-x86_64-kernel",
      "comment": "Reboot test",
      "path": "reboot_test",
      "waived": false,
      "misc": {
        "targeted": false,
        "debug": false,
        "fetch_url": "https://gitlab.com/redhat/centos-stream/tests/kernel/kernel-tests/-/archive/production/kernel-tests-production.zip#misc/reboot-test",
        "beaker": {
          "task_id": 8,
          "recipe_id": 15504814,
          "finish_time": "2024-02-04T00:14:43+00:00"
        },
        "maintainers": [
          {
            "name": "Bruno Goncalves",
            "email": "bgoncalv@redhat.com",
            "gitlab": "bgoncalv"
          }
        ],
        "rerun_index": 1,
        "results": [
          {
            "id": "redhat:1163293372-x86_64-kernel_upt_41.1707005666",
            "name": "/10_avc_check",
            "comment": "/10_avc_check",
            "status": "FAIL",
            "output_files": [
              {
                "name": "avc.log",
                "url": "https://s3.amazonaws.com/arr-cki-prod-trusted-artifacts/trusted-artifacts/1163293372/test_aarch64/6090070673/artifacts/run.done.04/job.01/recipes/15504814/tasks/8/results/1707005666/logs/avc.log"
              }
            ]
          },
          {
            "id": "redhat:1163293372-x86_64-kernel_upt_41.1707005667",
            "name": "misc/reboot-test/journalctl-check",
            "comment": "misc/reboot-test/journalctl-check",
            "status": "PASS",
            "output_files": [
              {
                "name": "journalctl.log",
                "url": "https://s3.amazonaws.com/arr-cki-prod-trusted-artifacts/trusted-artifacts/1163293372/test_aarch64/6090070673/artifacts/run.done.04/job.01/recipes/15504814/tasks/8/results/1707005667/logs/journalctl.log"
              },
              {
                "name": "avc.log",
                "url": "https://s3.amazonaws.com/arr-cki-prod-trusted-artifacts/trusted-artifacts/1163293372/test_aarch64/6090070673/artifacts/run.done.04/job.01/recipes/15504814/tasks/8/results/1707005667/logs/avc.log"
              }
            ]
          }
        ],
        "provenance": [
          {
            "function": "coordinator",
            "url": "https://gitlab.com/redhat/red-hat-ci-tools/kernel/cki-internal-pipelines/cki-trusted-contributors/-/jobs/6090070673",
            "service_name": "gitlab"
          },
          {
            "function": "provisioner",
            "url": "https://beaker.engineering.redhat.com/recipes/15504814",
            "service_name": "beaker"
          }
        ]
      },
      "start_time": "2024-02-04T00:14:25+00:00",
      "output_files": [
        {
          "name": "harness.log",
          "url": "https://s3.amazonaws.com/arr-cki-prod-trusted-artifacts/trusted-artifacts/1163293372/test_aarch64/6090070673/artifacts/run.done.04/job.01/recipes/15504814/tasks/8/logs/harness.log"
        },
        {
          "name": "test_console.log",
          "url": "https://s3.amazonaws.com/arr-cki-prod-trusted-artifacts/trusted-artifacts/1163293372/test_aarch64/6090070673/artifacts/run.done.04/job.01/recipes/15504814/tasks/8/logs/test_console.log"
        },
        {
          "name": "taskout.log",
          "url": "https://s3.amazonaws.com/arr-cki-prod-trusted-artifacts/trusted-artifacts/1163293372/test_aarch64/6090070673/artifacts/run.done.04/job.01/recipes/15504814/tasks/8/logs/taskout.log"
        },
        {
          "name": "console.log",
          "url": "https://s3.amazonaws.com/arr-cki-prod-trusted-artifacts/trusted-artifacts/1163293372/test_aarch64/6090070673/artifacts/run.done.04/results_0001/console.log"
        },
        {
          "name": "beaker_xml",
          "url": "https://s3.amazonaws.com/arr-cki-prod-trusted-artifacts/trusted-artifacts/1163293372/test_aarch64/6090070673/artifacts/testid41/beaker.xml"
        }
      ],
      "environment": {
        "comment": "hpe-apollo-cn99xx-15-vm-04.khw.eng.rdu2.dc.redhat.com"
      },
      "duration": 18,
      "status": "FAIL"
    }
  ]
}
